<?xml version="1.0" encoding="UTF-8" standalone="no"?>
<!-- Created with Inkscape (http://www.inkscape.org/) -->

<svg
   xmlns:dc="http://purl.org/dc/elements/1.1/"
   xmlns:cc="http://creativecommons.org/ns#"
   xmlns:rdf="http://www.w3.org/1999/02/22-rdf-syntax-ns#"
   xmlns:svg="http://www.w3.org/2000/svg"
   xmlns="http://www.w3.org/2000/svg"
   xmlns:sodipodi="http://sodipodi.sourceforge.net/DTD/sodipodi-0.dtd"
   xmlns:inkscape="http://www.inkscape.org/namespaces/inkscape"
   width="20.904661mm"
   height="18.222071mm"
   viewBox="0 0 74.071634 64.566392"
   id="svg3479"
   version="1.1"
   inkscape:version="0.91 r13725"
   sodipodi:docname="bier_logo.svg">
  <defs
     id="defs3481" />
  <sodipodi:namedview
     id="base"
     pagecolor="#ffffff"
     bordercolor="#666666"
     borderopacity="1.0"
     inkscape:pageopacity="0.0"
     inkscape:pageshadow="2"
     inkscape:zoom="0.35"
     inkscape:cx="2180.6072"
     inkscape:cy="-319.14538"
     inkscape:document-units="px"
     inkscape:current-layer="layer1"
     showgrid="false"
     fit-margin-top="0"
     fit-margin-left="0"
     fit-margin-right="0"
     fit-margin-bottom="0"
     inkscape:window-width="1920"
     inkscape:window-height="1056"
     inkscape:window-x="0"
     inkscape:window-y="24"
     inkscape:window-maximized="1" />
  <metadata
     id="metadata3484">
    <rdf:RDF>
      <cc:Work
         rdf:about="">
        <dc:format>image/svg+xml</dc:format>
        <dc:type
           rdf:resource="http://purl.org/dc/dcmitype/StillImage" />
        <dc:title></dc:title>
      </cc:Work>
    </rdf:RDF>
  </metadata>
  <g
     inkscape:label="Ebene 1"
     inkscape:groupmode="layer"
     id="layer1"
     transform="translate(1805.6072,-148.65044)">
    <path
       style="fill:#000000"
       d="m -1772.8037,206.5073 c -0.7535,0.0745 -1.6744,-0.0526 -2.4905,-0.34365 -0.3506,-0.12504 -2.9971,-1.64806 -5.881,-3.38441 -5.6071,-3.37585 -5.8638,-3.56371 -6.5956,-4.82645 -0.4572,-0.78872 -0.7309,-1.97491 -0.6401,-2.79948 0.067,-0.62774 0.2935,-1.02568 6.1122,-10.76152 4.3276,-7.24101 6.2056,-10.29064 6.6184,-10.7469 1.422,-1.5721 3.7918,-2.54834 6.1657,-2.54005 l 0.7739,0.003 4.1345,-5.72295 c 2.2739,-3.14769 4.1571,-5.72895 4.1847,-5.7362 0.03,-9.2e-4 1.8091,1.04116 3.959,2.32961 3.5707,2.14 3.9005,2.36107 3.811,2.55402 -0.054,0.11577 -1.4437,2.97394 -3.0884,6.35068 -2.7893,5.72641 -2.9816,6.159 -2.8576,6.43005 0.075,0.15922 0.2855,0.63381 0.4795,1.04978 0.8465,1.84259 1.0394,3.94268 0.5251,5.71767 -0.1373,0.47414 -1.8005,3.3501 -6.2547,10.81611 -3.337,5.59361 -6.2201,10.32019 -6.4067,10.50355 -0.5959,0.58517 -1.5788,1.01222 -2.5513,1.10826 z m 5.9694,-13.09018 3.8562,-6.43761 -6.2511,-3.74439 -6.2509,-3.74424 -3.8744,6.46822 -3.8745,6.46803 6.2188,3.72637 c 3.4204,2.04961 6.2416,3.72058 6.2695,3.71363 0.03,-9.2e-4 1.7856,-2.90947 3.9065,-6.45013 z m 15.5551,-31.25428 c -0.3316,-0.0303 -1.2602,-0.53867 -4.0633,-2.22469 -3.9537,-2.37793 -4.0607,-2.46591 -4.0028,-3.29165 0.02,-0.29028 0.1157,-0.46792 0.3633,-0.67641 0.6633,-0.55868 0.7904,-0.50793 4.9126,1.96167 2.9872,1.78957 3.7273,2.27739 3.8837,2.55904 0.5056,0.91171 -0.053,1.76713 -1.0935,1.67204 z"
       id="path11880-1-2"
       inkscape:connector-curvature="0"
       inkscape:export-filename="/var/www/html/tida/app/webroot/img/tida_icons.png"
       inkscape:export-xdpi="90"
       inkscape:export-ydpi="90" />
    <path
       sodipodi:type="star"
       style="opacity:1;fill:none;fill-opacity:1;stroke:#000000;stroke-width:5.82289886;stroke-linecap:butt;stroke-linejoin:miter;stroke-miterlimit:3;stroke-dasharray:none;stroke-opacity:1"
       id="path4963-8"
       sodipodi:sides="6"
       sodipodi:cx="-228.29448"
       sodipodi:cy="581.6311"
       sodipodi:r1="79.288933"
       sodipodi:r2="69.114182"
       sodipodi:arg1="0.9757267"
       sodipodi:arg2="1.4993255"
       inkscape:flatsided="false"
       inkscape:rounded="0"
       inkscape:randomized="0"
       d="m -183.84777,647.29102 -39.51127,3.27782 -39.57524,2.3842 -22.59431,-32.57885 -21.8524,-33.08106 16.91696,-35.85668 17.72284,-35.46526 39.51127,-3.27782 39.57524,-2.38421 22.59431,32.57886 21.8524,33.08106 -16.91696,35.85667 z"
       transform="matrix(0.44731031,0.02868853,-0.02868853,0.44731031,-1649.7668,-72.686523)" />
  </g>
</svg>
