<?xml version="1.0" encoding="UTF-8" standalone="no"?>
<!-- Created with Inkscape (http://www.inkscape.org/) -->

<svg
   xmlns:dc="http://purl.org/dc/elements/1.1/"
   xmlns:cc="http://creativecommons.org/ns#"
   xmlns:rdf="http://www.w3.org/1999/02/22-rdf-syntax-ns#"
   xmlns:svg="http://www.w3.org/2000/svg"
   xmlns="http://www.w3.org/2000/svg"
   xmlns:sodipodi="http://sodipodi.sourceforge.net/DTD/sodipodi-0.dtd"
   xmlns:inkscape="http://www.inkscape.org/namespaces/inkscape"
   width="19.104105mm"
   height="16.652571mm"
   viewBox="0 0 67.691711 59.005172"
   id="svg4649"
   version="1.1"
   inkscape:version="0.91 r13725"
   sodipodi:docname="fotoapparat.svg">
  <defs
     id="defs4651" />
  <sodipodi:namedview
     id="base"
     pagecolor="#ffffff"
     bordercolor="#666666"
     borderopacity="1.0"
     inkscape:pageopacity="0.0"
     inkscape:pageshadow="2"
     inkscape:zoom="0.35"
     inkscape:cx="2120.2744"
     inkscape:cy="-1090.4974"
     inkscape:document-units="px"
     inkscape:current-layer="layer1"
     showgrid="false"
     fit-margin-top="0"
     fit-margin-left="0"
     fit-margin-right="0"
     fit-margin-bottom="0"
     inkscape:window-width="1920"
     inkscape:window-height="1056"
     inkscape:window-x="0"
     inkscape:window-y="24"
     inkscape:window-maximized="1" />
  <metadata
     id="metadata4654">
    <rdf:RDF>
      <cc:Work
         rdf:about="">
        <dc:format>image/svg+xml</dc:format>
        <dc:type
           rdf:resource="http://purl.org/dc/dcmitype/StillImage" />
        <dc:title></dc:title>
      </cc:Work>
    </rdf:RDF>
  </metadata>
  <g
     inkscape:label="Ebene 1"
     inkscape:groupmode="layer"
     id="layer1"
     transform="translate(1745.2744,617.14041)">
    <g
       id="g3536"
       transform="matrix(0.91386821,0,0,0.91386821,-1794.5117,-1208.7172)">
      <path
         inkscape:connector-curvature="0"
         id="path4508"
         d="m 69.782183,694.49516 c -1.110185,-0.5672 -1.794317,-1.48653 -2.02174,-2.71685 -0.112502,-0.60868 -0.167824,-3.8935 -0.138894,-8.24842 l 0.04804,-7.23691 8.848915,-0.0475 c 4.866912,-0.0263 8.847864,-0.0263 8.846561,0 -0.0013,0.0263 -0.170106,0.58283 -0.375131,1.23697 -0.468008,1.49323 -0.500355,4.05025 -0.0697,5.50465 1.06004,3.57944 3.988329,6.31134 7.581428,7.07297 1.663375,0.3526 2.829133,0.3264 4.500916,-0.10113 3.459752,-0.88487 5.966932,-3.32301 7.169232,-6.97179 0.57392,-1.74185 0.41372,-4.50508 -0.37482,-6.46477 -0.12113,-0.30084 0.17629,-0.32095 4.7505,-0.32095 l 4.87966,0 0,7.41857 c 0,4.70203 -0.074,7.76295 -0.20169,8.35904 -0.24081,1.1228 -1.03729,2.10902 -2.08921,2.5869 -0.69645,0.31639 -1.78344,0.33418 -20.640747,0.33801 l -19.905611,0.003 -0.807665,-0.41266 z m 23.239127,-8.02895 c -1.085283,-0.27272 -2.120709,-0.87065 -2.958588,-1.70854 -2.464153,-2.46415 -2.45725,-6.41207 0.01523,-8.88236 1.275657,-1.27436 2.390004,-1.76521 4.183864,-1.84291 1.162579,-0.0504 1.684267,0.0179 2.512841,0.32892 1.434546,0.53846 2.745756,1.76207 3.474523,3.24241 1.52455,3.09678 0.1257,6.97885 -3.035748,8.42531 -1.197174,0.54774 -3.003013,0.73604 -4.192406,0.43717 z M 67.721921,672.85428 c -0.07732,-4.42376 0.166131,-5.28366 1.777196,-6.27972 l 0.892558,-0.55185 20.11077,0 20.110765,0 0.90261,0.55771 c 0.57756,0.35688 1.06765,0.8522 1.36097,1.37549 0.43058,0.76817 0.46227,1.00964 0.52249,3.98137 l 0.0641,3.16362 -5.23001,0 -5.23,0 -0.39001,-0.63103 c -0.57167,-0.92501 -2.16899,-2.31736 -3.428726,-2.98881 -2.89916,-1.54523 -6.395763,-1.54523 -9.294918,0 -1.259754,0.67145 -2.857047,2.0638 -3.428745,2.98881 l -0.389985,0.63103 -9.154903,0 -9.154919,0 -0.03925,-2.24662 z m 22.541833,-7.42967 -7.482884,-0.0478 1.063967,-1.55411 1.063983,-1.5541 5.58141,0.0432 5.581428,0.0432 0.899578,1.41847 c 0.494758,0.78015 0.871628,1.48166 0.837488,1.55887 -0.0342,0.0773 -3.429386,0.11876 -7.54497,0.0926 z m 2.164357,-1.60265 0,-0.917 -1.925666,0 -1.925682,0 -0.05566,0.96915 -0.05566,0.96914 1.981325,-0.0521 1.981323,-0.0521 0,-0.91699 z m -18.770744,1.00869 0.191795,-0.55019 1.724346,0 c 1.366266,0 1.724328,0.054 1.724328,0.26008 0,0.14313 0.05008,0.39065 0.111318,0.5502 0.09744,0.25375 -0.142785,0.29009 -1.916124,0.29009 l -2.027458,0 0.191795,-0.55018 z m 29.132693,0.47369 c 0,-0.0422 0.16325,-0.45726 0.3627,-0.92267 l 0.36271,-0.84617 2.24527,0.0516 2.24525,0.0514 0.32315,0.87115 0.32315,0.87113 -2.93112,0 c -1.61211,0 -2.93111,-0.0344 -2.93111,-0.0764 z"
         style="fill:#000000" />
      <path
         transform="matrix(0.44731031,0.02868853,-0.02868853,0.44731031,209.71834,425.99576)"
         d="m -183.84777,647.29102 -39.51127,3.27782 -39.57524,2.3842 -22.59431,-32.57885 -21.8524,-33.08106 16.91696,-35.85668 17.72284,-35.46526 39.51127,-3.27782 39.57524,-2.38421 22.59431,32.57886 21.8524,33.08106 -16.91696,35.85667 z"
         inkscape:randomized="0"
         inkscape:rounded="0"
         inkscape:flatsided="false"
         sodipodi:arg2="1.4993255"
         sodipodi:arg1="0.9757267"
         sodipodi:r2="69.114182"
         sodipodi:r1="79.288933"
         sodipodi:cy="581.6311"
         sodipodi:cx="-228.29448"
         sodipodi:sides="6"
         id="path4963-7"
         style="opacity:1;fill:none;fill-opacity:1;stroke:#000000;stroke-width:5.82289886;stroke-linecap:butt;stroke-linejoin:miter;stroke-miterlimit:3;stroke-dasharray:none;stroke-opacity:1"
         sodipodi:type="star" />
    </g>
  </g>
</svg>
