<?xml version="1.0" encoding="UTF-8" standalone="no"?>
<!-- Created with Inkscape (http://www.inkscape.org/) -->

<svg
   xmlns:dc="http://purl.org/dc/elements/1.1/"
   xmlns:cc="http://creativecommons.org/ns#"
   xmlns:rdf="http://www.w3.org/1999/02/22-rdf-syntax-ns#"
   xmlns:svg="http://www.w3.org/2000/svg"
   xmlns="http://www.w3.org/2000/svg"
   xmlns:sodipodi="http://sodipodi.sourceforge.net/DTD/sodipodi-0.dtd"
   xmlns:inkscape="http://www.inkscape.org/namespaces/inkscape"
   width="20.653072mm"
   height="53.633877mm"
   viewBox="0 0 73.180178 190.04129"
   id="svg4145"
   version="1.1"
   inkscape:version="0.91 r13725"
   sodipodi:docname="icons_hochkant.svg">
  <defs
     id="defs4147" />
  <sodipodi:namedview
     id="base"
     pagecolor="#ffffff"
     bordercolor="#666666"
     borderopacity="1.0"
     inkscape:pageopacity="0.0"
     inkscape:pageshadow="2"
     inkscape:zoom="0.35"
     inkscape:cx="1974.4473"
     inkscape:cy="-659.26506"
     inkscape:document-units="px"
     inkscape:current-layer="layer1"
     showgrid="false"
     fit-margin-top="0"
     fit-margin-left="0"
     fit-margin-right="0"
     fit-margin-bottom="0"
     inkscape:window-width="1920"
     inkscape:window-height="1056"
     inkscape:window-x="0"
     inkscape:window-y="24"
     inkscape:window-maximized="1" />
  <metadata
     id="metadata4150">
    <rdf:RDF>
      <cc:Work
         rdf:about="">
        <dc:format>image/svg+xml</dc:format>
        <dc:type
           rdf:resource="http://purl.org/dc/dcmitype/StillImage" />
        <dc:title></dc:title>
      </cc:Work>
    </rdf:RDF>
  </metadata>
  <g
     inkscape:label="Ebene 1"
     inkscape:groupmode="layer"
     id="layer1"
     transform="translate(1599.4473,316.94416)">
    <path
       sodipodi:type="star"
       style="opacity:1;fill:#ffffff;fill-opacity:1;stroke:#ffffff;stroke-width:9.76508713;stroke-linecap:butt;stroke-linejoin:miter;stroke-miterlimit:3;stroke-dasharray:none;stroke-opacity:1"
       id="path4963-8-1-1-9"
       sodipodi:sides="6"
       sodipodi:cx="-228.29448"
       sodipodi:cy="581.6311"
       sodipodi:r1="79.288933"
       sodipodi:r2="69.114182"
       sodipodi:arg1="0.9757267"
       sodipodi:arg2="1.4993255"
       inkscape:flatsided="false"
       inkscape:rounded="0"
       inkscape:randomized="0"
       d="m -183.84777,647.29102 -39.51127,3.27782 -39.57524,2.3842 -22.59431,-32.57885 -21.8524,-33.08106 16.91696,-35.85668 17.72284,-35.46526 39.51127,-3.27782 39.57524,-2.38421 22.59431,32.57886 21.8524,33.08106 -16.91696,35.85667 z"
       transform="matrix(0.42639418,0.02734706,-0.02734706,0.42639418,-1449.9277,-527.08923)" />
    <path
       inkscape:connector-curvature="0"
       id="path4963-8-7-7-8"
       d="m -1545.6937,-129.06602 -15.2441,0.28543 -15.2468,-0.0591 -7.8693,-13.0592 -7.5722,-13.23367 7.3749,-13.34464 7.6746,-13.17457 15.2443,-0.28543 15.2467,0.0591 7.8693,13.0592 7.5722,13.23367 -7.375,13.34464 z"
       style="opacity:1;fill:#0088aa;fill-opacity:1;stroke:#000000;stroke-width:3.75533104;stroke-linecap:butt;stroke-linejoin:miter;stroke-miterlimit:3;stroke-dasharray:none;stroke-opacity:1" />
    <g
       id="g13093-2-8-7"
       transform="matrix(0.07950605,0,0,0.07950605,-1584.2826,-179.33772)"
       inkscape:export-filename="/var/www/html/tida/app/webroot/img/tida_icons.png"
       inkscape:export-xdpi="90"
       inkscape:export-ydpi="90">
      <g
         id="g13049-3-4-9">
        <g
           id="g13051-2-3-2">
          <path
             id="path13053-5-1-0"
             d="m 293.95,33.564 c 28.938,0 52.39,23.455 52.39,52.389 0,28.929 -23.451,52.389 -52.39,52.389 -28.93,0 -52.389,-23.46 -52.389,-52.389 0,-28.933 23.459,-52.389 52.389,-52.389 l 0,0 z"
             inkscape:connector-curvature="0" />
          <path
             id="path13055-7-4-2"
             d="m 437.379,15.638 -0.763,-0.327 -0.082,-0.027 -9.641,-4.066 c -11.003,-4.625 -16.063,4.389 -17.59,8.055 l -25.195,64.923 c -0.173,0.486 -6.887,16.963 -17.509,28.898 l -33.817,37.965 c -0.019,0.014 -0.019,0.014 -0.019,0.032 -8.812,9.885 -19.298,11.103 -23.114,11.185 l -49.236,0 c -11.548,0 -17.636,-5.265 -19.726,-7.546 -10.021,-12.139 -22.751,-36.144 -29.96,-50.445 -5.202,-10.062 -1.881,-17.427 -0.504,-19.771 l 35.398,-57.377 c 0,0 0,0 0,-0.009 8.014,-12.97 -3.489,-19.444 -3.489,-19.444 L 232.774,1.81 c -0.009,0 -0.009,0 -0.027,0 -10.558,-6.596 -18.054,6.969 -18.054,6.969 l -44.707,77.334 c -1.731,3.153 -7.601,15.782 0.454,30.806 l 102.021,190.536 c 0.936,1.79 5.57,11.53 -0.191,17.845 l -63.728,69.498 0,0 -0.055,0.072 -2.83,3.071 c -4.502,5.342 -13.37,17.917 -19.158,40.055 l 0,0.019 -36.007,137.487 c -1.095,4.452 -3.953,19.989 9.799,19.989 l 24.627,0 c 3.739,-0.109 14.878,-1.799 20.162,-18.554 l 0,-0.018 27.885,-107.396 c 0,-0.019 0.009,-0.036 0.027,-0.055 4.998,-19.244 15.255,-30.347 19.099,-33.985 0.418,-0.382 0.936,-0.863 1.372,-1.272 0.055,-0.045 0.218,-0.182 0.218,-0.182 l 0,-0.019 c 11.802,-10.83 32.1,-30.292 65.091,-64.005 l 0,0.022 c 0,0 8.041,-8.387 7.469,-0.036 -4.161,66.526 -30.737,171.982 -40.941,210.634 -1.072,5.233 -1.49,14.864 10.013,14.864 l 26.222,0 c 4.307,-0.346 13.574,-2.926 17.481,-18.263 12.792,-50.336 48.082,-189.391 55.169,-220.074 3.126,-13.474 4.197,-24.613 4.361,-33.49 -0.409,-16.473 -8.322,-36.157 -8.322,-36.157 l 0,-0.009 -6.633,-13.292 -28.803,-53.879 c -8.123,-15.205 -2.525,-24.618 -0.6,-27.171 l 0.527,-0.69 c 0.027,0 0.081,-0.086 0.081,-0.086 l 50.073,-64.469 c 11.303,-14.601 17.881,-31.673 17.917,-31.728 l 20.916,-55.183 c 6.798,-18.023 -3.306,-24.011 -6.323,-25.36 l 0,0 z"
             inkscape:connector-curvature="0" />
        </g>
      </g>
      <g
         id="g13057-9-9-3" />
      <g
         id="g13059-4-2-7" />
      <g
         id="g13061-4-0-5" />
      <g
         id="g13063-2-6-9" />
      <g
         id="g13065-4-8-2" />
      <g
         id="g13067-2-9-2" />
      <g
         id="g13069-4-2-8" />
      <g
         id="g13071-6-6-9" />
      <g
         id="g13073-5-6-7" />
      <g
         id="g13075-5-4-3" />
      <g
         id="g13077-1-9-6" />
      <g
         id="g13079-1-5-1" />
      <g
         id="g13081-3-0-2" />
      <g
         id="g13083-9-4-9" />
      <g
         id="g13085-1-8-3" />
    </g>
    <path
       sodipodi:type="star"
       style="opacity:1;fill:#ffffff;fill-opacity:1;stroke:#000000;stroke-width:9.76508713;stroke-linecap:butt;stroke-linejoin:miter;stroke-miterlimit:3;stroke-dasharray:none;stroke-opacity:1"
       id="path4963-8-1-1"
       sodipodi:sides="6"
       sodipodi:cx="-228.29448"
       sodipodi:cy="581.6311"
       sodipodi:r1="79.288933"
       sodipodi:r2="69.114182"
       sodipodi:arg1="0.9757267"
       sodipodi:arg2="1.4993255"
       inkscape:flatsided="false"
       inkscape:rounded="0"
       inkscape:randomized="0"
       d="m -183.84777,647.29102 -39.51127,3.27782 -39.57524,2.3842 -22.59431,-32.57885 -21.8524,-33.08106 16.91696,-35.85668 17.72284,-35.46526 39.51127,-3.27782 39.57524,-2.38421 22.59431,32.57886 21.8524,33.08106 -16.91696,35.85667 z"
       transform="matrix(0.38377855,0.02461388,-0.02461388,0.38377855,-1461.0822,-502.96658)" />
    <g
       id="g13238-8-1-9"
       transform="matrix(0.07570021,0,0,0.07570021,-1583.4112,-306.82499)"
       inkscape:export-filename="/var/www/html/tida/app/webroot/img/tida_icons.png"
       inkscape:export-xdpi="90"
       inkscape:export-ydpi="90">
      <g
         id="g13194-6-7-4">
        <g
           id="g13196-8-2-7">
          <path
             id="path13198-7-7-8"
             d="m 358.117,103.434 c -2.065,-3.309 -8.491,-6.187 -12.393,-6.187 l -109.969,0 c -3.902,0 -4.036,2.936 -2.104,6.321 l 194.406,337.594 c 1.932,3.386 6.521,3.605 10.241,2.458 l 106.039,-33.517 c 3.729,-1.147 5.077,-5.565 3.012,-8.874 L 358.117,103.434 Z"
             inkscape:connector-curvature="0" />
          <path
             id="path13200-1-2-4"
             d="m 94.536,441.229 93.808,-200.239 0,193.726 c 0,17.337 18.379,16.343 22.281,16.343 l 182.816,0 c 3.901,0 5.488,-6.282 3.557,-9.668 L 208.12,106.599 c -1.932,-3.385 -5.059,-3.385 -6.99,0 l -47.296,83.05 c -1.932,3.385 -6.254,7.669 -9.667,9.562 -47.841,26.545 -112.359,61.994 -140.951,74.54 -4.284,1.884 -4.045,7.286 -0.708,10.557 6.359,6.216 19.871,20.436 32.35,37.562 7.258,9.964 13.607,21.076 18.81,32.102 1.664,3.528 1.348,9.17 -0.583,12.564 l -40.622,74.855 c -1.912,3.386 -0.315,9.668 3.586,9.668 l 68.229,0 c 3.899,10e-4 8.489,-6.349 10.258,-9.83 z M 39.982,286.958 c -1.75,-1.55 -1.549,-3.615 0.526,-4.705 20.129,-10.538 115.362,-60.521 141.841,-76.71 1.999,-1.224 2.725,-0.574 1.664,1.511 l -90.27,177.384 c -1.062,2.085 -2.276,1.913 -2.792,-0.373 C 87.556,369.07 73.776,316.85 39.982,286.958 Z"
             inkscape:connector-curvature="0" />
        </g>
      </g>
      <g
         id="g13202-7-2-5" />
      <g
         id="g13204-0-6-0" />
      <g
         id="g13206-6-1-3" />
      <g
         id="g13208-9-0-6" />
      <g
         id="g13210-9-6-1" />
      <g
         id="g13212-0-1-0" />
      <g
         id="g13214-5-5-6" />
      <g
         id="g13216-1-9-3" />
      <g
         id="g13218-7-4-2" />
      <g
         id="g13220-4-9-0" />
      <g
         id="g13222-2-0-6" />
      <g
         id="g13224-2-9-1" />
      <g
         id="g13226-8-1-5" />
      <g
         id="g13228-4-7-5" />
      <g
         id="g13230-8-7-4" />
    </g>
    <path
       sodipodi:type="star"
       style="opacity:1;fill:#ffffff;fill-opacity:1;stroke:#ffffff;stroke-width:9.76508713;stroke-linecap:butt;stroke-linejoin:miter;stroke-miterlimit:3;stroke-dasharray:none;stroke-opacity:1"
       id="path4963-8-1-1-9-2"
       sodipodi:sides="6"
       sodipodi:cx="-228.29448"
       sodipodi:cy="581.6311"
       sodipodi:r1="79.288933"
       sodipodi:r2="69.114182"
       sodipodi:arg1="0.9757267"
       sodipodi:arg2="1.4993255"
       inkscape:flatsided="false"
       inkscape:rounded="0"
       inkscape:randomized="0"
       d="m -183.84777,647.29102 -39.51127,3.27782 -39.57524,2.3842 -22.59431,-32.57885 -21.8524,-33.08106 16.91696,-35.85668 17.72284,-35.46526 39.51127,-3.27782 39.57524,-2.38421 22.59431,32.57886 21.8524,33.08106 -16.91696,35.85667 z"
       transform="matrix(0.42639418,0.02734706,-0.02734706,0.42639418,-1449.288,-462.89862)" />
    <path
       sodipodi:type="star"
       style="opacity:1;fill:#0088aa;fill-opacity:1;stroke:#000000;stroke-width:8.92400265;stroke-linecap:butt;stroke-linejoin:miter;stroke-miterlimit:3;stroke-dasharray:none;stroke-opacity:1"
       id="path4963-8-3-5-6"
       sodipodi:sides="6"
       sodipodi:cx="-228.29448"
       sodipodi:cy="581.6311"
       sodipodi:r1="79.288933"
       sodipodi:r2="69.114182"
       sodipodi:arg1="0.9757267"
       sodipodi:arg2="1.4993255"
       inkscape:flatsided="false"
       inkscape:rounded="0"
       inkscape:randomized="0"
       d="m -183.84777,647.29102 -39.51127,3.27782 -39.57524,2.3842 -22.59431,-32.57885 -21.8524,-33.08106 16.91696,-35.85668 17.72284,-35.46526 39.51127,-3.27782 39.57524,-2.38421 22.59431,32.57886 21.8524,33.08106 -16.91696,35.85667 z"
       transform="matrix(0.3980038,0.02552623,-0.02552623,0.3980038,-1456.698,-446.74728)" />
    <path
       style="opacity:1;fill:#ffffff;fill-opacity:1;stroke:#000000;stroke-width:3.55908442;stroke-linecap:butt;stroke-linejoin:miter;stroke-miterlimit:3;stroke-dasharray:none;stroke-opacity:1"
       d="m -1594,-220.93394 7.2505,-13.66249 7.9591,-13.66291 15.8093,-0.29601 15.8119,0.0613 8.1609,13.54326 8.2949,13.68001"
       id="path4963-8-3-5-4-5"
       inkscape:connector-curvature="0"
       sodipodi:nodetypes="ccccccc" />
    <path
       style="fill:#000000"
       d="m -1566.1725,-198.4962 c -0.6705,0.0663 -1.4899,-0.0468 -2.2161,-0.30577 -0.3119,-0.11126 -2.6667,-1.4664 -5.2327,-3.01135 -4.989,-3.00373 -5.2174,-3.17089 -5.8685,-4.29443 -0.4069,-0.70179 -0.6504,-1.75722 -0.5696,-2.4909 0.06,-0.55855 0.2612,-0.91262 5.4385,-9.57531 3.8506,-6.44284 5.5215,-9.15631 5.8888,-9.56228 1.2653,-1.39881 3.3739,-2.26744 5.4861,-2.26006 l 0.6886,0.003 3.6788,-5.09211 c 2.0232,-2.80072 3.6988,-5.09746 3.7234,-5.1039 0.027,-8.3e-4 1.6096,0.92639 3.5226,2.07281 3.1771,1.90411 3.4705,2.10081 3.3909,2.2725 -0.048,0.10301 -1.2846,2.64612 -2.748,5.65065 -2.4818,5.0952 -2.6529,5.4801 -2.5426,5.72128 0.066,0.14166 0.2541,0.56394 0.4267,0.93405 0.7532,1.63949 0.9248,3.50809 0.4672,5.08742 -0.1221,0.42188 -1.602,2.98083 -5.5652,9.62389 -2.9692,4.97703 -5.5346,9.1826 -5.7006,9.34575 -0.5302,0.52067 -1.4048,0.90065 -2.27,0.9861 z m 5.3113,-11.64727 3.4312,-5.728 -5.5621,-3.33166 -5.5618,-3.33152 -3.4473,5.75525 -3.4475,5.75506 5.5333,3.31563 c 3.0434,1.82369 5.5536,3.31046 5.5785,3.30428 0.026,-8.2e-4 1.5888,-2.58876 3.4758,-5.73914 z m 13.8406,-27.80917 c -0.2951,-0.0269 -1.1213,-0.47929 -3.6155,-1.97946 -3.5178,-2.11582 -3.6131,-2.1941 -3.5615,-2.92882 0.018,-0.25828 0.1029,-0.41634 0.3232,-0.60185 0.5902,-0.4971 0.7033,-0.45194 4.3711,1.74544 2.6579,1.5923 3.3165,2.02636 3.4555,2.27696 0.4499,0.81121 -0.047,1.57234 -0.9728,1.48773 z"
       id="path11880-1-2-1-6"
       inkscape:connector-curvature="0"
       inkscape:export-filename="/var/www/html/tida/app/webroot/img/tida_icons.png"
       inkscape:export-xdpi="90"
       inkscape:export-ydpi="90" />
  </g>
</svg>
