<?xml version="1.0" encoding="UTF-8" standalone="no"?>
<!-- Created with Inkscape (http://www.inkscape.org/) -->

<svg
   xmlns:dc="http://purl.org/dc/elements/1.1/"
   xmlns:cc="http://creativecommons.org/ns#"
   xmlns:rdf="http://www.w3.org/1999/02/22-rdf-syntax-ns#"
   xmlns:svg="http://www.w3.org/2000/svg"
   xmlns="http://www.w3.org/2000/svg"
   xmlns:sodipodi="http://sodipodi.sourceforge.net/DTD/sodipodi-0.dtd"
   xmlns:inkscape="http://www.inkscape.org/namespaces/inkscape"
   width="83.573006mm"
   height="30.078207mm"
   viewBox="0 0 296.12482 106.57632"
   id="svg3554"
   version="1.1"
   inkscape:version="0.91 r13725"
   sodipodi:docname="logo_rand.svg">
  <defs
     id="defs3556" />
  <sodipodi:namedview
     id="base"
     pagecolor="#ffffff"
     bordercolor="#666666"
     borderopacity="1.0"
     inkscape:pageopacity="0.0"
     inkscape:pageshadow="2"
     inkscape:zoom="0.35"
     inkscape:cx="148.0624"
     inkscape:cy="53.288159"
     inkscape:document-units="px"
     inkscape:current-layer="layer1"
     showgrid="false"
     fit-margin-top="0"
     fit-margin-left="0"
     fit-margin-right="0"
     fit-margin-bottom="0"
     inkscape:window-width="1920"
     inkscape:window-height="1056"
     inkscape:window-x="0"
     inkscape:window-y="24"
     inkscape:window-maximized="1" />
  <metadata
     id="metadata3559">
    <rdf:RDF>
      <cc:Work
         rdf:about="">
        <dc:format>image/svg+xml</dc:format>
        <dc:type
           rdf:resource="http://purl.org/dc/dcmitype/StillImage" />
        <dc:title></dc:title>
      </cc:Work>
    </rdf:RDF>
  </metadata>
  <g
     inkscape:label="Ebene 1"
     inkscape:groupmode="layer"
     id="layer1"
     transform="translate(-226.9376,-479.07404)">
    <g
       id="g4403"
       transform="matrix(0.89373246,0,0,0.89373246,361.53128,139.29034)"
       style="fill:none;fill-opacity:1">
      <path
         sodipodi:nodetypes="ccccccccccccccccc"
         inkscape:connector-curvature="0"
         id="path11460-4-08-31-6"
         d="m -72.572966,416.36 -16.3651,-11.55915 5.61171,-10.58387 13.777184,-2.43835 8.131385,12.87737 6.993393,-13.59707 10.816443,2.35388 4.716855,10.32672 -11.305556,10.32147 18.899628,9.87835 -2.775286,14.73945 -13.37152,3.98488 -12.889077,-15.50874 -15.294362,16.3949 -11.705678,-5.18336 -1.265643,-13.48787 z"
         style="fill:none;fill-opacity:1;fill-rule:evenodd;stroke:#000000;stroke-width:2.79999995;stroke-linecap:butt;stroke-linejoin:miter;stroke-miterlimit:0;stroke-dasharray:none;stroke-opacity:1"
         inkscape:export-filename="/var/www/html/tida/app/webroot/img/logo2.png"
         inkscape:export-xdpi="75.234192"
         inkscape:export-ydpi="75.234192" />
      <path
         sodipodi:nodetypes="cccccc"
         inkscape:connector-curvature="0"
         id="path11481-9-7-7-3"
         d="m -69.830143,424.06309 -7.925263,4.63937 -1.821082,3.35303 3.348326,-0.0958 7.191322,-6.80181 z"
         style="fill:none;fill-opacity:1;fill-rule:evenodd;stroke:#000000;stroke-width:2;stroke-linecap:butt;stroke-linejoin:miter;stroke-miterlimit:30;stroke-dasharray:none;stroke-opacity:1"
         inkscape:export-filename="/var/www/html/tida/app/webroot/img/logo2.png"
         inkscape:export-xdpi="75.234192"
         inkscape:export-ydpi="75.234192" />
      <path
         sodipodi:nodetypes="cccccccccacc"
         inkscape:connector-curvature="0"
         id="path11481-7-6-0-4-5"
         d="m -69.474199,407.46915 0.818588,-0.89914 -5.609984,-5.00627 -3.727018,-0.57828 0.522462,2.66385 7.957045,3.821 0.0049,-1.5e-4 0.0049,-1.4e-4 0.005,-1.5e-4 0.0049,-1.4e-4 0.0096,-2.9e-4 z"
         style="fill:none;fill-opacity:1;fill-rule:evenodd;stroke:#000000;stroke-width:2;stroke-linecap:butt;stroke-linejoin:miter;stroke-miterlimit:30;stroke-dasharray:none;stroke-opacity:1"
         inkscape:export-filename="/var/www/html/tida/app/webroot/img/logo2.png"
         inkscape:export-xdpi="75.234192"
         inkscape:export-ydpi="75.234192" />
      <path
         sodipodi:nodetypes="cccccc"
         inkscape:connector-curvature="0"
         id="path11481-7-5-6-9-5-6"
         d="m -53.927808,406.7076 5.917097,-3.86058 0.686117,-3.32735 -2.615459,0.25859 -3.987755,6.89723 z"
         style="fill:none;fill-opacity:1;fill-rule:evenodd;stroke:#000000;stroke-width:2;stroke-linecap:butt;stroke-linejoin:miter;stroke-miterlimit:30;stroke-dasharray:none;stroke-opacity:1"
         inkscape:export-filename="/var/www/html/tida/app/webroot/img/logo2.png"
         inkscape:export-xdpi="75.234192"
         inkscape:export-ydpi="75.234192" />
      <path
         sodipodi:nodetypes="cccccc"
         inkscape:connector-curvature="0"
         id="path11481-7-5-1-2-8-1-2"
         d="m -51.451834,423.69903 6.408133,7.43952 4.852103,0.43725 -2.330699,-5.30974 -8.389745,-3.42991 z"
         style="fill:none;fill-opacity:1;fill-rule:evenodd;stroke:#000000;stroke-width:2.29999995;stroke-linecap:butt;stroke-linejoin:miter;stroke-miterlimit:30;stroke-dasharray:none;stroke-opacity:1"
         inkscape:export-filename="/var/www/html/tida/app/webroot/img/logo2.png"
         inkscape:export-xdpi="75.234192"
         inkscape:export-ydpi="75.234192" />
      <path
         transform="matrix(0.1458954,-0.00213207,0.00213207,0.1458954,-29.162607,330.57801)"
         d="m -183.84777,647.29102 -39.51127,3.27782 -39.57524,2.3842 -22.59431,-32.57885 -21.8524,-33.08106 16.91696,-35.85668 17.72284,-35.46526 39.51127,-3.27782 39.57524,-2.38421 22.59431,32.57886 21.8524,33.08106 -16.91696,35.85667 z"
         inkscape:randomized="0"
         inkscape:rounded="0"
         inkscape:flatsided="false"
         sodipodi:arg2="1.4993255"
         sodipodi:arg1="0.9757267"
         sodipodi:r2="69.114182"
         sodipodi:r1="79.288933"
         sodipodi:cy="581.6311"
         sodipodi:cx="-228.29448"
         sodipodi:sides="6"
         id="path4963-9"
         style="opacity:1;fill:none;fill-opacity:1;stroke:#000000;stroke-width:15.76303577;stroke-linecap:butt;stroke-linejoin:miter;stroke-miterlimit:3;stroke-dasharray:none;stroke-opacity:1"
         sodipodi:type="star" />
      <path
         transform="matrix(0.05155326,0.0033064,-0.0033064,0.05155326,-47.908306,386.45349)"
         d="m -183.84777,647.29102 -39.51127,3.27782 -39.57524,2.3842 -22.59431,-32.57885 -21.8524,-33.08106 16.91696,-35.85668 17.72284,-35.46526 39.51127,-3.27782 39.57524,-2.38421 22.59431,32.57886 21.8524,33.08106 -16.91696,35.85667 z"
         inkscape:randomized="0"
         inkscape:rounded="0"
         inkscape:flatsided="false"
         sodipodi:arg2="1.4993255"
         sodipodi:arg1="0.9757267"
         sodipodi:r2="69.114182"
         sodipodi:r1="79.288933"
         sodipodi:cy="581.6311"
         sodipodi:cx="-228.29448"
         sodipodi:sides="6"
         id="path4963-9-1"
         style="opacity:1;fill:#e455ff;fill-opacity:1;stroke:#000000;stroke-width:17.13373375;stroke-linecap:butt;stroke-linejoin:miter;stroke-miterlimit:3;stroke-dasharray:none;stroke-opacity:1"
         sodipodi:type="star" />
    </g>
    <path
       style="fill:none;fill-rule:evenodd;stroke:#000000;stroke-width:1.76694691;stroke-linecap:butt;stroke-linejoin:miter;stroke-miterlimit:4;stroke-dasharray:none;stroke-opacity:1"
       d="m 522.25364,479.4296 -37.24461,84.71804 -197.37191,20.56463 -59.93456,-103.7306"
       id="path4386"
       inkscape:connector-curvature="0"
       sodipodi:nodetypes="cccc" />
  </g>
</svg>
