<?xml version="1.0" encoding="UTF-8" standalone="no"?>
<!-- Created with Inkscape (http://www.inkscape.org/) -->

<svg
   xmlns:dc="http://purl.org/dc/elements/1.1/"
   xmlns:cc="http://creativecommons.org/ns#"
   xmlns:rdf="http://www.w3.org/1999/02/22-rdf-syntax-ns#"
   xmlns:svg="http://www.w3.org/2000/svg"
   xmlns="http://www.w3.org/2000/svg"
   xmlns:sodipodi="http://sodipodi.sourceforge.net/DTD/sodipodi-0.dtd"
   xmlns:inkscape="http://www.inkscape.org/namespaces/inkscape"
   width="52.791248mm"
   height="27.295633mm"
   viewBox="0 0 187.0556 96.71681"
   id="svg3483"
   version="1.1"
   inkscape:version="0.91 r13725"
   sodipodi:docname="tidas_logos.svg">
  <defs
     id="defs3485" />
  <sodipodi:namedview
     id="base"
     pagecolor="#ffffff"
     bordercolor="#666666"
     borderopacity="1.0"
     inkscape:pageopacity="0.0"
     inkscape:pageshadow="2"
     inkscape:zoom="2.8"
     inkscape:cx="70.561766"
     inkscape:cy="82.246024"
     inkscape:document-units="px"
     inkscape:current-layer="layer1"
     showgrid="false"
     fit-margin-top="0"
     fit-margin-left="0"
     fit-margin-right="0"
     fit-margin-bottom="0"
     inkscape:window-width="1920"
     inkscape:window-height="1056"
     inkscape:window-x="0"
     inkscape:window-y="24"
     inkscape:window-maximized="1" />
  <metadata
     id="metadata3488">
    <rdf:RDF>
      <cc:Work
         rdf:about="">
        <dc:format>image/svg+xml</dc:format>
        <dc:type
           rdf:resource="http://purl.org/dc/dcmitype/StillImage" />
        <dc:title></dc:title>
      </cc:Work>
    </rdf:RDF>
  </metadata>
  <g
     inkscape:label="Ebene 1"
     inkscape:groupmode="layer"
     id="layer1"
     transform="translate(1542.415,15.756287)">
    <g
       id="g13093-2"
       transform="matrix(0.08468607,0,0,0.08468607,-1532.2985,25.10681)"
       inkscape:export-filename="/var/www/html/tida/app/webroot/img/tida_icons.png"
       inkscape:export-xdpi="90"
       inkscape:export-ydpi="90">
      <g
         id="g13049-3">
        <g
           id="g13051-2">
          <path
             id="path13053-5"
             d="m 293.95,33.564 c 28.938,0 52.39,23.455 52.39,52.389 0,28.929 -23.451,52.389 -52.39,52.389 -28.93,0 -52.389,-23.46 -52.389,-52.389 0,-28.933 23.459,-52.389 52.389,-52.389 l 0,0 z"
             inkscape:connector-curvature="0" />
          <path
             id="path13055-7"
             d="m 437.379,15.638 -0.763,-0.327 -0.082,-0.027 -9.641,-4.066 c -11.003,-4.625 -16.063,4.389 -17.59,8.055 l -25.195,64.923 c -0.173,0.486 -6.887,16.963 -17.509,28.898 l -33.817,37.965 c -0.019,0.014 -0.019,0.014 -0.019,0.032 -8.812,9.885 -19.298,11.103 -23.114,11.185 l -49.236,0 c -11.548,0 -17.636,-5.265 -19.726,-7.546 -10.021,-12.139 -22.751,-36.144 -29.96,-50.445 -5.202,-10.062 -1.881,-17.427 -0.504,-19.771 l 35.398,-57.377 c 0,0 0,0 0,-0.009 8.014,-12.97 -3.489,-19.444 -3.489,-19.444 L 232.774,1.81 c -0.009,0 -0.009,0 -0.027,0 -10.558,-6.596 -18.054,6.969 -18.054,6.969 l -44.707,77.334 c -1.731,3.153 -7.601,15.782 0.454,30.806 l 102.021,190.536 c 0.936,1.79 5.57,11.53 -0.191,17.845 l -63.728,69.498 0,0 -0.055,0.072 -2.83,3.071 c -4.502,5.342 -13.37,17.917 -19.158,40.055 l 0,0.019 -36.007,137.487 c -1.095,4.452 -3.953,19.989 9.799,19.989 l 24.627,0 c 3.739,-0.109 14.878,-1.799 20.162,-18.554 l 0,-0.018 27.885,-107.396 c 0,-0.019 0.009,-0.036 0.027,-0.055 4.998,-19.244 15.255,-30.347 19.099,-33.985 0.418,-0.382 0.936,-0.863 1.372,-1.272 0.055,-0.045 0.218,-0.182 0.218,-0.182 l 0,-0.019 c 11.802,-10.83 32.1,-30.292 65.091,-64.005 l 0,0.022 c 0,0 8.041,-8.387 7.469,-0.036 -4.161,66.526 -30.737,171.982 -40.941,210.634 -1.072,5.233 -1.49,14.864 10.013,14.864 l 26.222,0 c 4.307,-0.346 13.574,-2.926 17.481,-18.263 12.792,-50.336 48.082,-189.391 55.169,-220.074 3.126,-13.474 4.197,-24.613 4.361,-33.49 -0.409,-16.473 -8.322,-36.157 -8.322,-36.157 l 0,-0.009 -6.633,-13.292 -28.803,-53.879 c -8.123,-15.205 -2.525,-24.618 -0.6,-27.171 l 0.527,-0.69 c 0.027,0 0.081,-0.086 0.081,-0.086 l 50.073,-64.469 c 11.303,-14.601 17.881,-31.673 17.917,-31.728 l 20.916,-55.183 c 6.798,-18.023 -3.306,-24.011 -6.323,-25.36 l 0,0 z"
             inkscape:connector-curvature="0" />
        </g>
      </g>
      <g
         id="g13057-9" />
      <g
         id="g13059-4" />
      <g
         id="g13061-4" />
      <g
         id="g13063-2" />
      <g
         id="g13065-4" />
      <g
         id="g13067-2" />
      <g
         id="g13069-4" />
      <g
         id="g13071-6" />
      <g
         id="g13073-5" />
      <g
         id="g13075-5" />
      <g
         id="g13077-1" />
      <g
         id="g13079-1" />
      <g
         id="g13081-3" />
      <g
         id="g13083-9" />
      <g
         id="g13085-1" />
    </g>
    <path
       inkscape:connector-curvature="0"
       id="path4963-8-7"
       d="m -1491.1953,78.653834 -16.2374,0.304028 -16.2402,-0.06295 -8.382,-13.910036 -8.0656,-14.095881 7.8554,-14.214068 8.1746,-14.032934 16.2375,-0.304028 16.2402,0.06294 8.382,13.91004 8.0656,14.09588 -7.8555,14.214065 z"
       style="opacity:1;fill:none;fill-opacity:1;stroke:#000000;stroke-width:4;stroke-linecap:butt;stroke-linejoin:miter;stroke-miterlimit:3;stroke-dasharray:none;stroke-opacity:1" />
    <g
       id="g13238-8"
       transform="matrix(0.08063227,0,0,0.08063227,-1411.859,27.795823)"
       inkscape:export-filename="/var/www/html/tida/app/webroot/img/tida_icons.png"
       inkscape:export-xdpi="90"
       inkscape:export-ydpi="90">
      <g
         id="g13194-6">
        <g
           id="g13196-8">
          <path
             id="path13198-7"
             d="m 358.117,103.434 c -2.065,-3.309 -8.491,-6.187 -12.393,-6.187 l -109.969,0 c -3.902,0 -4.036,2.936 -2.104,6.321 l 194.406,337.594 c 1.932,3.386 6.521,3.605 10.241,2.458 l 106.039,-33.517 c 3.729,-1.147 5.077,-5.565 3.012,-8.874 L 358.117,103.434 Z"
             inkscape:connector-curvature="0" />
          <path
             id="path13200-1"
             d="m 94.536,441.229 93.808,-200.239 0,193.726 c 0,17.337 18.379,16.343 22.281,16.343 l 182.816,0 c 3.901,0 5.488,-6.282 3.557,-9.668 L 208.12,106.599 c -1.932,-3.385 -5.059,-3.385 -6.99,0 l -47.296,83.05 c -1.932,3.385 -6.254,7.669 -9.667,9.562 -47.841,26.545 -112.359,61.994 -140.951,74.54 -4.284,1.884 -4.045,7.286 -0.708,10.557 6.359,6.216 19.871,20.436 32.35,37.562 7.258,9.964 13.607,21.076 18.81,32.102 1.664,3.528 1.348,9.17 -0.583,12.564 l -40.622,74.855 c -1.912,3.386 -0.315,9.668 3.586,9.668 l 68.229,0 c 3.899,10e-4 8.489,-6.349 10.258,-9.83 z M 39.982,286.958 c -1.75,-1.55 -1.549,-3.615 0.526,-4.705 20.129,-10.538 115.362,-60.521 141.841,-76.71 1.999,-1.224 2.725,-0.574 1.664,1.511 l -90.27,177.384 c -1.062,2.085 -2.276,1.913 -2.792,-0.373 C 87.556,369.07 73.776,316.85 39.982,286.958 Z"
             inkscape:connector-curvature="0" />
        </g>
      </g>
      <g
         id="g13202-7" />
      <g
         id="g13204-0" />
      <g
         id="g13206-6" />
      <g
         id="g13208-9" />
      <g
         id="g13210-9" />
      <g
         id="g13212-0" />
      <g
         id="g13214-5" />
      <g
         id="g13216-1" />
      <g
         id="g13218-7" />
      <g
         id="g13220-4" />
      <g
         id="g13222-2" />
      <g
         id="g13224-2" />
      <g
         id="g13226-8" />
      <g
         id="g13228-4" />
      <g
         id="g13230-8" />
    </g>
    <path
       sodipodi:type="star"
       style="opacity:1;fill:none;fill-opacity:1;stroke:#000000;stroke-width:9.76508713;stroke-linecap:butt;stroke-linejoin:miter;stroke-miterlimit:3;stroke-dasharray:none;stroke-opacity:1"
       id="path4963-8"
       sodipodi:sides="6"
       sodipodi:cx="-228.29448"
       sodipodi:cy="581.6311"
       sodipodi:r1="79.288933"
       sodipodi:r2="69.114182"
       sodipodi:arg1="0.9757267"
       sodipodi:arg2="1.4993255"
       inkscape:flatsided="false"
       inkscape:rounded="0"
       inkscape:randomized="0"
       d="m -183.84777,647.29102 -39.51127,3.27782 -39.57524,2.3842 -22.59431,-32.57885 -21.8524,-33.08106 16.91696,-35.85668 17.72284,-35.46526 39.51127,-3.27782 39.57524,-2.38421 22.59431,32.57886 21.8524,33.08106 -16.91696,35.85667 z"
       transform="matrix(0.40878267,0.02621754,-0.02621754,0.40878267,-1281.5598,-181.12489)" />
    <path
       style="fill:#000000"
       d="m -1453.7925,42.795597 c -0.7535,0.0745 -1.6744,-0.0526 -2.4905,-0.34365 -0.3506,-0.12504 -2.9971,-1.64806 -5.881,-3.384413 -5.6071,-3.37585 -5.8638,-3.56371 -6.5956,-4.82645 -0.4572,-0.78872 -0.7309,-1.97491 -0.6401,-2.79948 0.067,-0.62774 0.2935,-1.02568 6.1122,-10.76152 4.3276,-7.24101 6.2056,-10.29064 6.6184,-10.7469 1.422,-1.5721 3.7918,-2.54834 6.1657,-2.54005 l 0.7739,0.003 4.1345,-5.72295 c 2.2739,-3.14769 4.1571,-5.72895 4.1847,-5.7362 0.03,-9.2e-4 1.8091,1.04116 3.959,2.32961 3.5707,2.14000005 3.9005,2.36107005 3.811,2.55402005 -0.054,0.11577 -1.4437,2.97393995 -3.0884,6.35067995 -2.7893,5.72641 -2.9816,6.159 -2.8576,6.43005 0.075,0.15922 0.2855,0.63381 0.4795,1.04978 0.8465,1.84259 1.0394,3.94268 0.5251,5.71767 -0.1373,0.47414 -1.8005,3.3501 -6.2547,10.81611 -3.337,5.59361 -6.2201,10.320193 -6.4067,10.503553 -0.5959,0.58517 -1.5788,1.01222 -2.5513,1.10826 z m 5.9694,-13.090183 3.8562,-6.43761 -6.2511,-3.74439 -6.2509,-3.74424 -3.8744,6.46822 -3.8745,6.46803 6.2188,3.72637 c 3.4204,2.04961 6.2416,3.72058 6.2695,3.71363 0.03,-9.2e-4 1.7856,-2.90947 3.9065,-6.45013 z m 15.5551,-31.25428 c -0.3316,-0.0303 -1.2602,-0.53867 -4.0633,-2.22469 -3.9537,-2.37793 -4.0607,-2.46591 -4.0028,-3.29165 0.02,-0.29028 0.1157,-0.46792 0.3633,-0.67641 0.6633,-0.55868 0.7904,-0.50793 4.9126,1.96167 2.9872,1.78957 3.7273,2.27739 3.8837,2.55904 0.5056,0.91171 -0.053,1.76713 -1.0935,1.67204 z"
       id="path11880-1-2"
       inkscape:connector-curvature="0"
       inkscape:export-filename="/var/www/html/tida/app/webroot/img/tida_icons.png"
       inkscape:export-xdpi="90"
       inkscape:export-ydpi="90" />
    <path
       sodipodi:type="star"
       style="opacity:1;fill:none;fill-opacity:1;stroke:#000000;stroke-width:8.92400265;stroke-linecap:butt;stroke-linejoin:miter;stroke-miterlimit:3;stroke-dasharray:none;stroke-opacity:1"
       id="path4963-8-3"
       sodipodi:sides="6"
       sodipodi:cx="-228.29448"
       sodipodi:cy="581.6311"
       sodipodi:r1="79.288933"
       sodipodi:r2="69.114182"
       sodipodi:arg1="0.9757267"
       sodipodi:arg2="1.4993255"
       inkscape:flatsided="false"
       inkscape:rounded="0"
       inkscape:randomized="0"
       d="m -183.84777,647.29102 -39.51127,3.27782 -39.57524,2.3842 -22.59431,-32.57885 -21.8524,-33.08106 16.91696,-35.85668 17.72284,-35.46526 39.51127,-3.27782 39.57524,-2.38421 22.59431,32.57886 21.8524,33.08106 -16.91696,35.85667 z"
       transform="matrix(0.44731031,0.02868853,-0.02868853,0.44731031,-1330.7556,-236.39822)" />
  </g>
</svg>
