<?xml version="1.0" encoding="UTF-8" standalone="no"?>
<!-- Created with Inkscape (http://www.inkscape.org/) -->

<svg
   xmlns:dc="http://purl.org/dc/elements/1.1/"
   xmlns:cc="http://creativecommons.org/ns#"
   xmlns:rdf="http://www.w3.org/1999/02/22-rdf-syntax-ns#"
   xmlns:svg="http://www.w3.org/2000/svg"
   xmlns="http://www.w3.org/2000/svg"
   xmlns:sodipodi="http://sodipodi.sourceforge.net/DTD/sodipodi-0.dtd"
   xmlns:inkscape="http://www.inkscape.org/namespaces/inkscape"
   width="19.104105mm"
   height="16.652571mm"
   viewBox="0 0 67.691711 59.005172"
   id="svg3622"
   version="1.1"
   inkscape:version="0.91 r13725"
   sodipodi:docname="wissen_logo.svg">
  <defs
     id="defs3624" />
  <sodipodi:namedview
     id="base"
     pagecolor="#ffffff"
     bordercolor="#666666"
     borderopacity="1.0"
     inkscape:pageopacity="0.0"
     inkscape:pageshadow="2"
     inkscape:zoom="0.35"
     inkscape:cx="33.845858"
     inkscape:cy="29.502587"
     inkscape:document-units="px"
     inkscape:current-layer="layer1"
     showgrid="false"
     fit-margin-top="0"
     fit-margin-left="0"
     fit-margin-right="0"
     fit-margin-bottom="0"
     inkscape:window-width="1920"
     inkscape:window-height="1056"
     inkscape:window-x="0"
     inkscape:window-y="24"
     inkscape:window-maximized="1" />
  <metadata
     id="metadata3627">
    <rdf:RDF>
      <cc:Work
         rdf:about="">
        <dc:format>image/svg+xml</dc:format>
        <dc:type
           rdf:resource="http://purl.org/dc/dcmitype/StillImage" />
        <dc:title></dc:title>
      </cc:Work>
    </rdf:RDF>
  </metadata>
  <g
     inkscape:label="Ebene 1"
     inkscape:groupmode="layer"
     id="layer1"
     transform="translate(-341.15414,-502.85962)">
    <path
       sodipodi:type="star"
       style="opacity:1;fill:none;fill-opacity:1;stroke:#000000;stroke-width:5.82289886;stroke-linecap:butt;stroke-linejoin:miter;stroke-miterlimit:3;stroke-dasharray:none;stroke-opacity:1"
       id="path4963"
       sodipodi:sides="6"
       sodipodi:cx="-228.29448"
       sodipodi:cy="581.6311"
       sodipodi:r1="79.288933"
       sodipodi:r2="69.114182"
       sodipodi:arg1="0.9757267"
       sodipodi:arg2="1.4993255"
       inkscape:flatsided="false"
       inkscape:rounded="0"
       inkscape:randomized="0"
       d="m -183.84777,647.29102 -39.51127,3.27782 -39.57524,2.3842 -22.59431,-32.57885 -21.8524,-33.08106 16.91696,-35.85668 17.72284,-35.46526 39.51127,-3.27782 39.57524,-2.38421 22.59431,32.57886 21.8524,33.08106 -16.91696,35.85667 z"
       transform="matrix(0.40878267,0.02621754,-0.02621754,0.40878267,483.57176,300.58681)" />
    <text
       xml:space="preserve"
       style="font-style:normal;font-variant:normal;font-weight:normal;font-stretch:normal;font-size:30.41976357px;line-height:125%;font-family:ub;-inkscape-font-specification:ub;letter-spacing:0px;word-spacing:0px;fill:#000000;fill-opacity:1;stroke:none;stroke-width:1px;stroke-linecap:butt;stroke-linejoin:miter;stroke-opacity:1"
       x="406.80084"
       y="496.24228"
       id="text3478-3-9"
       sodipodi:linespacing="125%"
       transform="scale(0.90910413,1.099984)"><tspan
         sodipodi:role="line"
         x="406.80084"
         y="496.24228"
         style="font-style:normal;font-variant:normal;font-weight:normal;font-stretch:normal;font-family:'Arial Black';-inkscape-font-specification:'Arial Black, '"
         id="tspan3504-9">i</tspan></text>
  </g>
</svg>
