<?xml version="1.0" encoding="UTF-8" standalone="no"?>
<!-- Created with Inkscape (http://www.inkscape.org/) -->

<svg
   xmlns:dc="http://purl.org/dc/elements/1.1/"
   xmlns:cc="http://creativecommons.org/ns#"
   xmlns:rdf="http://www.w3.org/1999/02/22-rdf-syntax-ns#"
   xmlns:svg="http://www.w3.org/2000/svg"
   xmlns="http://www.w3.org/2000/svg"
   xmlns:sodipodi="http://sodipodi.sourceforge.net/DTD/sodipodi-0.dtd"
   xmlns:inkscape="http://www.inkscape.org/namespaces/inkscape"
   width="19.104105mm"
   height="16.652571mm"
   viewBox="0 0 67.691711 59.005172"
   id="svg3721"
   version="1.1"
   inkscape:version="0.91 r13725"
   sodipodi:docname="zelt.svg">
  <defs
     id="defs3723" />
  <sodipodi:namedview
     id="base"
     pagecolor="#ffffff"
     bordercolor="#666666"
     borderopacity="1.0"
     inkscape:pageopacity="0.0"
     inkscape:pageshadow="2"
     inkscape:zoom="0.35"
     inkscape:cx="33.845858"
     inkscape:cy="29.502587"
     inkscape:document-units="px"
     inkscape:current-layer="layer1"
     showgrid="false"
     fit-margin-top="0"
     fit-margin-left="0"
     fit-margin-right="0"
     fit-margin-bottom="0"
     inkscape:window-width="1920"
     inkscape:window-height="1056"
     inkscape:window-x="0"
     inkscape:window-y="24"
     inkscape:window-maximized="1" />
  <metadata
     id="metadata3726">
    <rdf:RDF>
      <cc:Work
         rdf:about="">
        <dc:format>image/svg+xml</dc:format>
        <dc:type
           rdf:resource="http://purl.org/dc/dcmitype/StillImage" />
        <dc:title></dc:title>
      </cc:Work>
    </rdf:RDF>
  </metadata>
  <g
     inkscape:label="Ebene 1"
     inkscape:groupmode="layer"
     id="layer1"
     transform="translate(-341.15414,-502.85962)">
    <g
       id="g13238-8"
       transform="matrix(0.08063227,0,0,0.08063227,353.27256,509.50752)"
       inkscape:export-filename="/var/www/html/tida/app/webroot/img/tida_icons.png"
       inkscape:export-xdpi="90"
       inkscape:export-ydpi="90">
      <g
         id="g13194-6">
        <g
           id="g13196-8">
          <path
             id="path13198-7"
             d="m 358.117,103.434 c -2.065,-3.309 -8.491,-6.187 -12.393,-6.187 l -109.969,0 c -3.902,0 -4.036,2.936 -2.104,6.321 l 194.406,337.594 c 1.932,3.386 6.521,3.605 10.241,2.458 l 106.039,-33.517 c 3.729,-1.147 5.077,-5.565 3.012,-8.874 L 358.117,103.434 Z"
             inkscape:connector-curvature="0" />
          <path
             id="path13200-1"
             d="m 94.536,441.229 93.808,-200.239 0,193.726 c 0,17.337 18.379,16.343 22.281,16.343 l 182.816,0 c 3.901,0 5.488,-6.282 3.557,-9.668 L 208.12,106.599 c -1.932,-3.385 -5.059,-3.385 -6.99,0 l -47.296,83.05 c -1.932,3.385 -6.254,7.669 -9.667,9.562 -47.841,26.545 -112.359,61.994 -140.951,74.54 -4.284,1.884 -4.045,7.286 -0.708,10.557 6.359,6.216 19.871,20.436 32.35,37.562 7.258,9.964 13.607,21.076 18.81,32.102 1.664,3.528 1.348,9.17 -0.583,12.564 l -40.622,74.855 c -1.912,3.386 -0.315,9.668 3.586,9.668 l 68.229,0 c 3.899,10e-4 8.489,-6.349 10.258,-9.83 z M 39.982,286.958 c -1.75,-1.55 -1.549,-3.615 0.526,-4.705 20.129,-10.538 115.362,-60.521 141.841,-76.71 1.999,-1.224 2.725,-0.574 1.664,1.511 l -90.27,177.384 c -1.062,2.085 -2.276,1.913 -2.792,-0.373 C 87.556,369.07 73.776,316.85 39.982,286.958 Z"
             inkscape:connector-curvature="0" />
        </g>
      </g>
      <g
         id="g13202-7" />
      <g
         id="g13204-0" />
      <g
         id="g13206-6" />
      <g
         id="g13208-9" />
      <g
         id="g13210-9" />
      <g
         id="g13212-0" />
      <g
         id="g13214-5" />
      <g
         id="g13216-1" />
      <g
         id="g13218-7" />
      <g
         id="g13220-4" />
      <g
         id="g13222-2" />
      <g
         id="g13224-2" />
      <g
         id="g13226-8" />
      <g
         id="g13228-4" />
      <g
         id="g13230-8" />
    </g>
    <path
       sodipodi:type="star"
       style="opacity:1;fill:none;fill-opacity:1;stroke:#000000;stroke-width:5.82289886;stroke-linecap:butt;stroke-linejoin:miter;stroke-miterlimit:3;stroke-dasharray:none;stroke-opacity:1"
       id="path4963-8"
       sodipodi:sides="6"
       sodipodi:cx="-228.29448"
       sodipodi:cy="581.6311"
       sodipodi:r1="79.288933"
       sodipodi:r2="69.114182"
       sodipodi:arg1="0.9757267"
       sodipodi:arg2="1.4993255"
       inkscape:flatsided="false"
       inkscape:rounded="0"
       inkscape:randomized="0"
       d="m -183.84777,647.29102 -39.51127,3.27782 -39.57524,2.3842 -22.59431,-32.57885 -21.8524,-33.08106 16.91696,-35.85668 17.72284,-35.46526 39.51127,-3.27782 39.57524,-2.38421 22.59431,32.57886 21.8524,33.08106 -16.91696,35.85667 z"
       transform="matrix(0.40878267,0.02621754,-0.02621754,0.40878267,483.57176,300.58681)" />
  </g>
</svg>
